xs21_g84213kkoz110c452
xs21_g84213gv146z123
xs21_g8421344oge2z1252
xs21_g84213kcz11x34ak8
xs21_g84213z1256o8ge2
xs21_g84213z11642sga6
xs21_g84213ggz178ka221
xs21_g84213kcz11y05b8o
xs21_g84213kcz11x3ego
xs21_g8421344oz11wo8b5
xs21_g84213z12hu0628c
xs21_g84213ia4zph8421
xs21_g84213z125a8oge2
xs21_g84213z01178c4871
xs21_g84213gz1168m943
xs21_g84213kcz11y0djo
xs21_g84213z125akg853
xs21_g84213z01p56zbd
xs21_g84213z0ld1e8z32
xs21_g84213wkcz125a8421
xs21_g84213ia4z110cip
xs21_g84213g8gz01178b41
xs21_g842138f1246z123
xs21_g84213kk8z110ca43
xs21_g84213z129m8628c
xs21_g842134jq23z123
xs21_g84213gz1168mp21
xs21_g84213z1168ozwrm
xs21_g8421344oz11y35b8o
xs21_g84213z01pl2zdb
xs21_g84213z0h952zrm
xs21_g84213ia4zdbx32
xs21_g84213kcz118kc32
xs21_g84213iarz11w65
xs21_g84213kkoz1104a52
xs21_g84213gv146z0113
xs21_g84213z123c48c4go
xs21_g84213z121eg8og4c
xs21_g84213gv1ok8z11
xs21_g84213wg8oz125a8421
xs21_g84213z12hu06413
xs21_g84213kr2qkz11
xs21_g84213z01178c48a6
xs21_g84213z1256o8gkc
xs21_g84213z1256o8b5
xs21_g84213z125a8o652
xs21_g84213z129mge13
xs21_g84213ia4z11woj6
xs21_g84213z129e0eic
xs21_g84213on1z178c
xs21_g84213gz178ka521
xs21_g842138f1egoz11
xs21_g84213z1168ozwoj6
xs21_g84213z1164260ui
xs21_g84213kk8z11w8k96
xs21_g84213z0dl3zx1248c
xs21_g84213z1168ozxrm
xs21_g84213z0hhla4z56
xs21_g842134s0gz11y2pk3
xs21_g84213kcz11x122qk
xs21_g84213z123qajo
xs21_g84213z123ckg853
xs21_g84213kcz11y11178c
xs21_g84213z11642tic
xs21_g84213on1z110253
xs21_g84213z1256o8a52
xs21_g84213z011j871z065
xs21_g84213obap3z11
xs21_g84213z129m86246
xs21_g84213z121e862sg
xs21_g84213kcz11y012pm
xs21_g84213z0h9licz23
xs21_g84213z11642ug8o
xs21_g84213z115b8og4c
xs21_g84213ia4z11xrm
xs21_g84213z123ckzy112ko
xs21_g8421344oz11xojd
xs21_g84213gz12pm4521
xs21_g8421344oz123y2db
xs21_g84213g8oz011da43
xs21_g84213g8goz0115a43
xs21_g84213z121ege123
xs21_g84213z121eg842sg
xs21_g84213z129e0eio
xs21_g84213ia4z11y111da
xs21_g84213kczdbw65
xs21_g84213kcz11y11pl2
xs21_g84213ia4z11w69k8
xs21_g84213z11drzca1
xs21_g84213kk8z11y01248go
xs21_g84213z11688q552
xs21_g8421344oz11y0358go
xs21_g84213on1z011da
xs21_g8421344oz11y3djo
xs21_g84213kczdby1113
xs21_g84213kk8z11x1qm
xs21_g84213z1164pb8o
xs21_g84213g8oz01178701
xs21_g842134jq23z0113
xs21_g84213z121eg842ac
xs21_g8421344og8oz1256
xs21_g8421344oge123z11
xs21_g84213z0113ia4z6421
xs21_g84213z123c48gzy31ac
xs21_g842138f123z1252
xs21_g84213z12560uh3
xs21_g84213z123c48gka4
xs21_g84213ia4z1104a9o
xs21_g84213kcz11x342sg
xs21_g84213w8oz121eg8421
xs21_g84213kcz11y1115ac
xs21_g84213kcz11y1d552
xs21_g8421344og8ozdb
xs21_g84213z125a8og84c
xs21_g84213ggoz019f032
xs21_g84213kkoz11wc96
xs21_g84213z1164132qk
xs21_g8421344oz0113y1db
xs21_g84213z125akg8426
xs21_g842138nhgz11y365
xs21_g84213z0h952sgz32
xs21_g8421344oz123xbd
xs21_g84213kcz11y111da4
xs21_g84213z011j871z321
xs21_g84213z121ego8a6
xs21_g84213z123ckg8426
xs21_g84213z12560uic
xs21_g84213ggz178ka43
xs21_g84213z125a842ak8
xs21_g84213z12hu06246
xs21_g8421344oz11y0og853
xs21_g8421344oz11688611
xs21_g84213ia4z11xol3
xs21_g84213kcz11w254ko
