{
    "image": "https://catagolue.hatsya.com/autogen/nfts/3.gif",
    "external_url": "https://catagolue.hatsya.com/nfts/3",
    "name": "Anura",
    "attributes": [
        {
            "display_type": "date",
            "trait_type": "discovery date",
            "value": 1609156800
        },
        {
            "trait_type": "object type",
            "value": "spaceship"
        },
        {
            "trait_type": "period",
            "value": 7
        },
        {
            "trait_type": "direction",
            "value": "orthogonal"
        },
        {
            "trait_type": "speed",
            "value": "3c/7 orthogonal"
        }
    ],
    "background_color": "000000",
    "description": "A 3c/7 orthogonal spaceship with bilateral symmetry and prominent tail sparks.\n\nDiscovered by Dylan Chen on 2020-12-28.\n\nSee the [LifeWiki page](https://conwaylife.com/wiki/Anura) and [Catagolue page](https://catagolue.hatsya.com/nfts/3) for further information."
}