{
    "image": "https://catagolue.hatsya.com/autogen/nfts/7.gif",
    "external_url": "https://catagolue.hatsya.com/nfts/7",
    "name": "Blockdragger",
    "attributes": [
        {
            "display_type": "date",
            "trait_type": "discovery date",
            "value": 1628424000
        },
        {
            "trait_type": "object type",
            "value": "spaceship"
        },
        {
            "trait_type": "period",
            "value": 5
        },
        {
            "trait_type": "direction",
            "value": "diagonal"
        },
        {
            "trait_type": "speed",
            "value": "c/5 diagonal"
        }
    ],
    "background_color": "000000",
    "description": "A relatively small asymmetric diagonal spaceship discovered by an automated search.\n\nDiscovered by Adam P. Goucher on 2021-08-08.\n\nSee the [forum post](https://conwaylife.com/forums/viewtopic.php?f=2&t=2031&p=134828#p134828) and [Catagolue page](https://catagolue.hatsya.com/nfts/7) for further information."
}