{
    "image": "https://catagolue.hatsya.com/autogen/nfts/9.gif",
    "external_url": "https://catagolue.hatsya.com/nfts/9",
    "name": "Dolphin",
    "attributes": [
        {
            "display_type": "date",
            "trait_type": "discovery date",
            "value": 1606219200
        },
        {
            "trait_type": "object type",
            "value": "spaceship"
        },
        {
            "trait_type": "period",
            "value": 5
        },
        {
            "trait_type": "direction",
            "value": "orthogonal"
        },
        {
            "trait_type": "speed",
            "value": "2c/5 orthogonal"
        }
    ],
    "background_color": "000000",
    "description": "A 2c/5 orthogonal spaceship found using ikpx2.\n\nDiscovered by John Winston Garth on 2020-11-24.\n\nSee the [forum post](https://www.conwaylife.com/forums/viewtopic.php?f=2&t=2031&p=114110#p114110) and [Catagolue page](https://catagolue.hatsya.com/nfts/9) for further information."
}